DEBUG:root:2021-10-12 23:59:40.923740  stating client employee....
DEBUG:root:2021-10-12 23:59:41.100228  multicast inbound up
DEBUG:root:2021-10-12 23:59:41.100967  Multicast_inbound: Esperando para recibir un mensaje
DEBUG:root:2021-10-12 23:59:43.556427  Multicast_inbound: data recibida {"hostname": "ry9", "address": "127.0.1.1", "datetime": "12/10/21 23:59:43", "type": "server_daemon", "surveys_ended": [], "tcp_port_inbound": 36147, "ttl": 3}
DEBUG:root:2021-10-12 23:59:43.556566  Multicast_inbound: recibido 159 bytes de ('192.168.4.108', 54607)
DEBUG:root:2021-10-12 23:59:43.557068  Multicast_inbound: enviando acknowledgement
DEBUG:root:2021-10-12 23:59:43.577447  Multicast_inbound: Esperando para recibir un mensaje
DEBUG:root:2021-10-12 23:59:48.865049  Multicast_inbound: data recibida {"hostname": "ry9", "address": "127.0.1.1", "datetime": "12/10/21 23:59:48", "type": "server_daemon", "surveys_ended": [], "tcp_port_inbound": 36147, "ttl": 3}
DEBUG:root:2021-10-12 23:59:48.865170  Multicast_inbound: recibido 159 bytes de ('192.168.4.108', 54607)
DEBUG:root:2021-10-12 23:59:48.865568  Multicast_inbound: enviando acknowledgement
DEBUG:root:2021-10-12 23:59:48.885228  Multicast_inbound: Esperando para recibir un mensaje
DEBUG:root:2021-10-12 23:59:54.204904  Multicast_inbound: data recibida {"hostname": "ry9", "address": "127.0.1.1", "datetime": "12/10/21 23:59:54", "type": "server_daemon", "surveys_ended": [], "tcp_port_inbound": 36147, "ttl": 3}
DEBUG:root:2021-10-12 23:59:54.205023  Multicast_inbound: recibido 159 bytes de ('192.168.4.108', 54607)
DEBUG:root:2021-10-12 23:59:54.205361  Multicast_inbound: enviando acknowledgement
DEBUG:root:2021-10-12 23:59:54.225569  Multicast_inbound: Esperando para recibir un mensaje
DEBUG:root:2021-10-12 23:59:59.591223  Multicast_inbound: data recibida {"hostname": "ry9", "address": "127.0.1.1", "datetime": "12/10/21 23:59:59", "type": "server_daemon", "surveys_ended": [], "tcp_port_inbound": 36147, "ttl": 3}
DEBUG:root:2021-10-12 23:59:59.591344  Multicast_inbound: recibido 159 bytes de ('192.168.4.108', 54607)
DEBUG:root:2021-10-12 23:59:59.591681  Multicast_inbound: enviando acknowledgement
DEBUG:root:2021-10-12 23:59:59.611912  Multicast_inbound: Esperando para recibir un mensaje
DEBUG:root:2021-10-13 00:00:04.961754  Multicast_inbound: data recibida {"hostname": "ry9", "address": "127.0.1.1", "datetime": "13/10/21 00:00:04", "type": "server_daemon", "surveys_ended": [], "tcp_port_inbound": 36147, "ttl": 3}
DEBUG:root:2021-10-13 00:00:04.961874  Multicast_inbound: recibido 159 bytes de ('192.168.4.108', 54607)
DEBUG:root:2021-10-13 00:00:04.962212  Multicast_inbound: enviando acknowledgement
DEBUG:root:2021-10-13 00:00:04.984144  Multicast_inbound: Esperando para recibir un mensaje
INFO:root:2021-10-13 00:00:08.702432  Send: {"id": 9337512, "name:": "client_employee-1", "datetime": "13/10/21 00:00:08", "command": "search_employee", "data": {"login": "elbrick"}, "initiator": {"hostname": "ry9", "address": "127.0.1.1", "type": "client_employee", "tcp_port_inbound": 55262}}
INFO:root:2021-10-13 00:00:08.908599  Received: None
INFO:root:2021-10-13 00:00:08.909052  Send: {"id": 655614, "name:": "client_employee-1", "datetime": "13/10/21 00:00:08", "command": "add_update_employee", "data": {"login": "elbrick", "email": "elbrick.salazar@gmail.com", "nombre": "Elbrick Salazar", "telefono": "0424-2139812", "departamento": "IT", "password": "1"}, "initiator": {"hostname": "ry9", "address": "127.0.1.1", "type": "client_employee", "tcp_port_inbound": 55264}}
INFO:root:2021-10-13 00:00:09.016684  Received: {'login': 'elbrick', 'email': 'elbrick.salazar@gmail.com', 'nombre': 'Elbrick Salazar', 'telefono': '0424-2139812', 'departamento': 'IT', 'password': '1'}
DEBUG:root:2021-10-13 00:00:10.395752  Multicast_inbound: data recibida {"hostname": "ry9", "address": "127.0.1.1", "datetime": "13/10/21 00:00:10", "type": "server_daemon", "surveys_ended": [], "tcp_port_inbound": 36147, "ttl": 3}
DEBUG:root:2021-10-13 00:00:10.395940  Multicast_inbound: recibido 159 bytes de ('192.168.4.108', 54607)
DEBUG:root:2021-10-13 00:00:10.396538  Multicast_inbound: enviando acknowledgement
DEBUG:root:2021-10-13 00:00:10.437574  Multicast_inbound: Esperando para recibir un mensaje
INFO:root:2021-10-13 00:00:11.802335  Send: {"id": 3660288, "name:": "client_employee-1", "datetime": "13/10/21 00:00:11", "command": "list_enable_survey_for_pre_incripcion", "data": "", "initiator": {"hostname": "ry9", "address": "127.0.1.1", "type": "client_employee", "tcp_port_inbound": 55266}}
INFO:root:2021-10-13 00:00:11.964972  Received: [{'titulo': 'Este es el titulo de la encuesta 1', 'descripcion': 'Encuesta de ejemplo', 'inicio_pre_incripcion': '13/10/21 00:00:00', 'duracion_pre_incripcion': 2, 'inicio_llenado': '13/10/21 00:02:00', 'duracion_llenado': 3, 'tiempo_visualizacion_respuesta_de_pregunta': 2, 'tiempo_para_responder_la_encuesta': 10, 'preguntas': ['Cuanto tiempo tiene en la empresa?', 'Le gusta la empresa?', 'Se siente a gusto con su jefe?', 'Quiere trabajar remoto (Si/No)?'], 'empleados': [], 'status': ['No se puede modificar encuesta esta en periodo de preinscripcion desde el 13/10/21 00:00:00 al 13/10/21 00:02:00']}]
INFO:root:2021-10-13 00:00:13.613783  Send: {"id": 2930068, "name:": "client_employee-1", "datetime": "13/10/21 00:00:13", "command": "preinscripcion", "data": {"titulo": "Este es el titulo de la encuesta 1", "login": "elbrick"}, "initiator": {"hostname": "ry9", "address": "127.0.1.1", "type": "client_employee", "tcp_port_inbound": 55268}}
INFO:root:2021-10-13 00:00:13.779751  Received: {'titulo': 'Este es el titulo de la encuesta 1', 'descripcion': 'Encuesta de ejemplo', 'inicio_pre_incripcion': '13/10/21 00:00:00', 'duracion_pre_incripcion': 2, 'inicio_llenado': '13/10/21 00:02:00', 'duracion_llenado': 3, 'tiempo_visualizacion_respuesta_de_pregunta': 2, 'tiempo_para_responder_la_encuesta': 10, 'preguntas': ['Cuanto tiempo tiene en la empresa?', 'Le gusta la empresa?', 'Se siente a gusto con su jefe?', 'Quiere trabajar remoto (Si/No)?'], 'empleados': [{'login': 'elbrick', 'key': -1}], 'status': ['No se puede modificar encuesta esta en periodo de preinscripcion desde el 13/10/21 00:00:00 al 13/10/21 00:02:00']}
DEBUG:root:2021-10-13 00:00:15.760541  Multicast_inbound: data recibida {"hostname": "ry9", "address": "127.0.1.1", "datetime": "13/10/21 00:00:15", "type": "server_daemon", "surveys_ended": [], "tcp_port_inbound": 36147, "ttl": 3}
DEBUG:root:2021-10-13 00:00:15.760655  Multicast_inbound: recibido 159 bytes de ('192.168.4.108', 54607)
DEBUG:root:2021-10-13 00:00:15.760972  Multicast_inbound: enviando acknowledgement
DEBUG:root:2021-10-13 00:00:15.780280  Multicast_inbound: Esperando para recibir un mensaje
INFO:root:2021-10-13 00:00:15.885525  Send: {"id": 280445, "name:": "client_employee-1", "datetime": "13/10/21 00:00:15", "command": "list_enable_survey_for_fill", "data": {"login": "elbrick"}, "initiator": {"hostname": "ry9", "address": "127.0.1.1", "type": "client_employee", "tcp_port_inbound": 55270}}
INFO:root:2021-10-13 00:00:16.006323  Received: []
DEBUG:root:2021-10-13 00:00:21.171056  Multicast_inbound: data recibida {"hostname": "ry9", "address": "127.0.1.1", "datetime": "13/10/21 00:00:21", "type": "server_daemon", "surveys_ended": [], "tcp_port_inbound": 36147, "ttl": 3}
DEBUG:root:2021-10-13 00:00:21.171246  Multicast_inbound: recibido 159 bytes de ('192.168.4.108', 54607)
DEBUG:root:2021-10-13 00:00:21.171844  Multicast_inbound: enviando acknowledgement
DEBUG:root:2021-10-13 00:00:21.211940  Multicast_inbound: Esperando para recibir un mensaje
DEBUG:root:2021-10-13 00:00:26.536138  Multicast_inbound: data recibida {"hostname": "ry9", "address": "127.0.1.1", "datetime": "13/10/21 00:00:26", "type": "server_daemon", "surveys_ended": [], "tcp_port_inbound": 36147, "ttl": 3}
DEBUG:root:2021-10-13 00:00:26.536256  Multicast_inbound: recibido 159 bytes de ('192.168.4.108', 54607)
DEBUG:root:2021-10-13 00:00:26.536584  Multicast_inbound: enviando acknowledgement
DEBUG:root:2021-10-13 00:00:26.556283  Multicast_inbound: Esperando para recibir un mensaje
DEBUG:root:2021-10-13 00:00:31.950763  Multicast_inbound: data recibida {"hostname": "ry9", "address": "127.0.1.1", "datetime": "13/10/21 00:00:31", "type": "server_daemon", "surveys_ended": [], "tcp_port_inbound": 36147, "ttl": 3}
DEBUG:root:2021-10-13 00:00:31.950971  Multicast_inbound: recibido 159 bytes de ('192.168.4.108', 54607)
DEBUG:root:2021-10-13 00:00:31.951841  Multicast_inbound: enviando acknowledgement
DEBUG:root:2021-10-13 00:00:31.992859  Multicast_inbound: Esperando para recibir un mensaje
DEBUG:root:2021-10-13 00:00:37.336097  Multicast_inbound: data recibida {"hostname": "ry9", "address": "127.0.1.1", "datetime": "13/10/21 00:00:37", "type": "server_daemon", "surveys_ended": [], "tcp_port_inbound": 36147, "ttl": 3}
DEBUG:root:2021-10-13 00:00:37.336218  Multicast_inbound: recibido 159 bytes de ('192.168.4.108', 54607)
DEBUG:root:2021-10-13 00:00:37.336682  Multicast_inbound: enviando acknowledgement
DEBUG:root:2021-10-13 00:00:37.356020  Multicast_inbound: Esperando para recibir un mensaje
DEBUG:root:2021-10-13 00:00:42.748164  Multicast_inbound: data recibida {"hostname": "ry9", "address": "127.0.1.1", "datetime": "13/10/21 00:00:42", "type": "server_daemon", "surveys_ended": [], "tcp_port_inbound": 36147, "ttl": 3}
DEBUG:root:2021-10-13 00:00:42.748368  Multicast_inbound: recibido 159 bytes de ('192.168.4.108', 54607)
DEBUG:root:2021-10-13 00:00:42.749234  Multicast_inbound: enviando acknowledgement
DEBUG:root:2021-10-13 00:00:42.790812  Multicast_inbound: Esperando para recibir un mensaje
DEBUG:root:2021-10-13 00:00:48.138656  Multicast_inbound: data recibida {"hostname": "ry9", "address": "127.0.1.1", "datetime": "13/10/21 00:00:48", "type": "server_daemon", "surveys_ended": [], "tcp_port_inbound": 36147, "ttl": 3}
DEBUG:root:2021-10-13 00:00:48.138773  Multicast_inbound: recibido 159 bytes de ('192.168.4.108', 54607)
DEBUG:root:2021-10-13 00:00:48.139105  Multicast_inbound: enviando acknowledgement
DEBUG:root:2021-10-13 00:00:48.158219  Multicast_inbound: Esperando para recibir un mensaje
DEBUG:root:2021-10-13 00:00:53.546706  Multicast_inbound: data recibida {"hostname": "ry9", "address": "127.0.1.1", "datetime": "13/10/21 00:00:53", "type": "server_daemon", "surveys_ended": [], "tcp_port_inbound": 36147, "ttl": 3}
DEBUG:root:2021-10-13 00:00:53.546892  Multicast_inbound: recibido 159 bytes de ('192.168.4.108', 54607)
DEBUG:root:2021-10-13 00:00:53.547476  Multicast_inbound: enviando acknowledgement
DEBUG:root:2021-10-13 00:00:53.588005  Multicast_inbound: Esperando para recibir un mensaje
DEBUG:root:2021-10-13 00:00:58.939366  Multicast_inbound: data recibida {"hostname": "ry9", "address": "127.0.1.1", "datetime": "13/10/21 00:00:58", "type": "server_daemon", "surveys_ended": [], "tcp_port_inbound": 36147, "ttl": 3}
DEBUG:root:2021-10-13 00:00:58.939479  Multicast_inbound: recibido 159 bytes de ('192.168.4.108', 54607)
DEBUG:root:2021-10-13 00:00:58.939813  Multicast_inbound: enviando acknowledgement
DEBUG:root:2021-10-13 00:00:58.959393  Multicast_inbound: Esperando para recibir un mensaje
DEBUG:root:2021-10-13 00:01:04.372350  Multicast_inbound: data recibida {"hostname": "ry9", "address": "127.0.1.1", "datetime": "13/10/21 00:01:04", "type": "server_daemon", "surveys_ended": [], "tcp_port_inbound": 36147, "ttl": 3}
DEBUG:root:2021-10-13 00:01:04.372525  Multicast_inbound: recibido 159 bytes de ('192.168.4.108', 54607)
DEBUG:root:2021-10-13 00:01:04.373109  Multicast_inbound: enviando acknowledgement
DEBUG:root:2021-10-13 00:01:04.413378  Multicast_inbound: Esperando para recibir un mensaje
DEBUG:root:2021-10-13 00:01:09.760778  Multicast_inbound: data recibida {"hostname": "ry9", "address": "127.0.1.1", "datetime": "13/10/21 00:01:09", "type": "server_daemon", "surveys_ended": [], "tcp_port_inbound": 36147, "ttl": 3}
DEBUG:root:2021-10-13 00:01:09.760919  Multicast_inbound: recibido 159 bytes de ('192.168.4.108', 54607)
DEBUG:root:2021-10-13 00:01:09.761378  Multicast_inbound: enviando acknowledgement
DEBUG:root:2021-10-13 00:01:09.783552  Multicast_inbound: Esperando para recibir un mensaje
DEBUG:root:2021-10-13 00:01:15.151485  Multicast_inbound: data recibida {"hostname": "ry9", "address": "127.0.1.1", "datetime": "13/10/21 00:01:15", "type": "server_daemon", "surveys_ended": [], "tcp_port_inbound": 36147, "ttl": 3}
DEBUG:root:2021-10-13 00:01:15.151709  Multicast_inbound: recibido 159 bytes de ('192.168.4.108', 54607)
DEBUG:root:2021-10-13 00:01:15.152334  Multicast_inbound: enviando acknowledgement
DEBUG:root:2021-10-13 00:01:15.193575  Multicast_inbound: Esperando para recibir un mensaje
DEBUG:root:2021-10-13 00:01:20.520978  Multicast_inbound: data recibida {"hostname": "ry9", "address": "127.0.1.1", "datetime": "13/10/21 00:01:20", "type": "server_daemon", "surveys_ended": [], "tcp_port_inbound": 36147, "ttl": 3}
DEBUG:root:2021-10-13 00:01:20.521095  Multicast_inbound: recibido 159 bytes de ('192.168.4.108', 54607)
DEBUG:root:2021-10-13 00:01:20.521420  Multicast_inbound: enviando acknowledgement
DEBUG:root:2021-10-13 00:01:20.540647  Multicast_inbound: Esperando para recibir un mensaje
DEBUG:root:2021-10-13 00:01:25.933819  Multicast_inbound: data recibida {"hostname": "ry9", "address": "127.0.1.1", "datetime": "13/10/21 00:01:25", "type": "server_daemon", "surveys_ended": [], "tcp_port_inbound": 36147, "ttl": 3}
DEBUG:root:2021-10-13 00:01:25.934004  Multicast_inbound: recibido 159 bytes de ('192.168.4.108', 54607)
DEBUG:root:2021-10-13 00:01:25.934577  Multicast_inbound: enviando acknowledgement
DEBUG:root:2021-10-13 00:01:25.974604  Multicast_inbound: Esperando para recibir un mensaje
DEBUG:root:2021-10-13 00:01:31.264410  Multicast_inbound: data recibida {"hostname": "ry9", "address": "127.0.1.1", "datetime": "13/10/21 00:01:31", "type": "server_daemon", "surveys_ended": [], "tcp_port_inbound": 36147, "ttl": 3}
DEBUG:root:2021-10-13 00:01:31.264540  Multicast_inbound: recibido 159 bytes de ('192.168.4.108', 54607)
DEBUG:root:2021-10-13 00:01:31.265092  Multicast_inbound: enviando acknowledgement
DEBUG:root:2021-10-13 00:01:31.285458  Multicast_inbound: Esperando para recibir un mensaje
DEBUG:root:2021-10-13 00:01:36.668489  Multicast_inbound: data recibida {"hostname": "ry9", "address": "127.0.1.1", "datetime": "13/10/21 00:01:36", "type": "server_daemon", "surveys_ended": [], "tcp_port_inbound": 36147, "ttl": 3}
DEBUG:root:2021-10-13 00:01:36.668613  Multicast_inbound: recibido 159 bytes de ('192.168.4.108', 54607)
DEBUG:root:2021-10-13 00:01:36.668963  Multicast_inbound: enviando acknowledgement
DEBUG:root:2021-10-13 00:01:36.688164  Multicast_inbound: Esperando para recibir un mensaje
DEBUG:root:2021-10-13 00:01:42.058608  Multicast_inbound: data recibida {"hostname": "ry9", "address": "127.0.1.1", "datetime": "13/10/21 00:01:41", "type": "server_daemon", "surveys_ended": [], "tcp_port_inbound": 36147, "ttl": 3}
DEBUG:root:2021-10-13 00:01:42.058798  Multicast_inbound: recibido 159 bytes de ('192.168.4.108', 54607)
DEBUG:root:2021-10-13 00:01:42.059369  Multicast_inbound: enviando acknowledgement
DEBUG:root:2021-10-13 00:01:42.100659  Multicast_inbound: Esperando para recibir un mensaje
DEBUG:root:2021-10-13 00:01:47.443803  Multicast_inbound: data recibida {"hostname": "ry9", "address": "127.0.1.1", "datetime": "13/10/21 00:01:47", "type": "server_daemon", "surveys_ended": [], "tcp_port_inbound": 36147, "ttl": 3}
DEBUG:root:2021-10-13 00:01:47.443914  Multicast_inbound: recibido 159 bytes de ('192.168.4.108', 54607)
DEBUG:root:2021-10-13 00:01:47.444209  Multicast_inbound: enviando acknowledgement
DEBUG:root:2021-10-13 00:01:47.463446  Multicast_inbound: Esperando para recibir un mensaje
DEBUG:root:2021-10-13 00:01:52.854622  Multicast_inbound: data recibida {"hostname": "ry9", "address": "127.0.1.1", "datetime": "13/10/21 00:01:52", "type": "server_daemon", "surveys_ended": [], "tcp_port_inbound": 36147, "ttl": 3}
DEBUG:root:2021-10-13 00:01:52.854809  Multicast_inbound: recibido 159 bytes de ('192.168.4.108', 54607)
DEBUG:root:2021-10-13 00:01:52.855500  Multicast_inbound: enviando acknowledgement
DEBUG:root:2021-10-13 00:01:52.896834  Multicast_inbound: Esperando para recibir un mensaje
DEBUG:root:2021-10-13 00:01:58.247863  Multicast_inbound: data recibida {"hostname": "ry9", "address": "127.0.1.1", "datetime": "13/10/21 00:01:58", "type": "server_daemon", "surveys_ended": [], "tcp_port_inbound": 36147, "ttl": 3}
DEBUG:root:2021-10-13 00:01:58.247981  Multicast_inbound: recibido 159 bytes de ('192.168.4.108', 54607)
DEBUG:root:2021-10-13 00:01:58.248288  Multicast_inbound: enviando acknowledgement
DEBUG:root:2021-10-13 00:01:58.267735  Multicast_inbound: Esperando para recibir un mensaje
INFO:root:2021-10-13 00:02:02.189906  Send: {"id": 820629, "name:": "client_employee-1", "datetime": "13/10/21 00:02:02", "command": "list_enable_survey_for_fill", "data": {"login": "elbrick"}, "initiator": {"hostname": "ry9", "address": "127.0.1.1", "type": "client_employee", "tcp_port_inbound": 55286}}
INFO:root:2021-10-13 00:02:02.309033  Received: [{'titulo': 'Este es el titulo de la encuesta 1', 'descripcion': 'Encuesta de ejemplo', 'inicio_pre_incripcion': '13/10/21 00:00:00', 'duracion_pre_incripcion': 2, 'inicio_llenado': '13/10/21 00:02:00', 'duracion_llenado': 3, 'tiempo_visualizacion_respuesta_de_pregunta': 2, 'tiempo_para_responder_la_encuesta': 10, 'preguntas': ['Cuanto tiempo tiene en la empresa?', 'Le gusta la empresa?', 'Se siente a gusto con su jefe?', 'Quiere trabajar remoto (Si/No)?'], 'empleados': [{'login': 'elbrick', 'key': -1}], 'status': ['No se puede modificar encuesta, Esta en periodo de llenado, desde el 13/10/21 00:02:00 al 13/10/21 00:05:00']}]
DEBUG:root:2021-10-13 00:02:03.680796  Multicast_inbound: data recibida {"hostname": "ry9", "address": "127.0.1.1", "datetime": "13/10/21 00:02:03", "type": "server_daemon", "surveys_ended": [], "tcp_port_inbound": 36147, "ttl": 3}
DEBUG:root:2021-10-13 00:02:03.680979  Multicast_inbound: recibido 159 bytes de ('192.168.4.108', 54607)
DEBUG:root:2021-10-13 00:02:03.681548  Multicast_inbound: enviando acknowledgement
DEBUG:root:2021-10-13 00:02:03.722767  Multicast_inbound: Esperando para recibir un mensaje
INFO:root:2021-10-13 00:02:07.133607  Send: {"id": 6541535, "name:": "client_employee-1", "datetime": "13/10/21 00:02:07", "command": "start_fill", "data": {"titulo": "Este es el titulo de la encuesta 1", "login": "elbrick"}, "initiator": {"hostname": "ry9", "address": "127.0.1.1", "type": "client_employee", "tcp_port_inbound": 55288}}
INFO:root:2021-10-13 00:02:07.255364  Received: {'login': 'elbrick', 'key': 935, 'datetime': '13/10/21 00:02:07'}
INFO:root:2021-10-13 00:02:08.946170  Send: {"id": 9579340, "name:": "client_employee-1", "datetime": "13/10/21 00:02:08", "command": "search_survey", "data": {"title": "Este es el titulo de la encuesta 1"}, "initiator": {"hostname": "ry9", "address": "127.0.1.1", "type": "client_employee", "tcp_port_inbound": 55290}}
DEBUG:root:2021-10-13 00:02:09.048555  Multicast_inbound: data recibida {"hostname": "ry9", "address": "127.0.1.1", "datetime": "13/10/21 00:02:08", "type": "server_daemon", "surveys_ended": [], "tcp_port_inbound": 36147, "ttl": 3}
DEBUG:root:2021-10-13 00:02:09.048670  Multicast_inbound: recibido 159 bytes de ('192.168.4.108', 54607)
DEBUG:root:2021-10-13 00:02:09.048984  Multicast_inbound: enviando acknowledgement
DEBUG:root:2021-10-13 00:02:09.068699  Multicast_inbound: Esperando para recibir un mensaje
INFO:root:2021-10-13 00:02:09.108567  Received: {'titulo': 'Este es el titulo de la encuesta 1', 'descripcion': 'Encuesta de ejemplo', 'inicio_pre_incripcion': '13/10/21 00:00:00', 'duracion_pre_incripcion': 2, 'inicio_llenado': '13/10/21 00:02:00', 'duracion_llenado': 3, 'tiempo_visualizacion_respuesta_de_pregunta': 2, 'tiempo_para_responder_la_encuesta': 10, 'preguntas': ['Cuanto tiempo tiene en la empresa?', 'Le gusta la empresa?', 'Se siente a gusto con su jefe?', 'Quiere trabajar remoto (Si/No)?'], 'empleados': [{'login': 'elbrick', 'key': 935, 'datetime': '13/10/21 00:02:07'}], 'status': ['No se puede modificar encuesta, Esta en periodo de llenado, desde el 13/10/21 00:02:00 al 13/10/21 00:05:00']}
INFO:root:2021-10-13 00:02:09.109260  Send: {"id": 1910619, "name:": "client_employee-1", "datetime": "13/10/21 00:02:09", "command": "how_much_time_left", "data": {"titulo": "Este es el titulo de la encuesta 1", "login": "elbrick"}, "initiator": {"hostname": "ry9", "address": "127.0.1.1", "type": "client_employee", "tcp_port_inbound": 55292}}
INFO:root:2021-10-13 00:02:09.247245  Received: {'minutes_left': 9}
INFO:root:2021-10-13 00:02:14.376507  Send: {"id": 8110371, "name:": "client_employee-1", "datetime": "13/10/21 00:02:14", "command": "how_much_time_left", "data": {"titulo": "Este es el titulo de la encuesta 1", "login": "elbrick"}, "initiator": {"hostname": "ry9", "address": "127.0.1.1", "type": "client_employee", "tcp_port_inbound": 55294}}
DEBUG:root:2021-10-13 00:02:14.461328  Multicast_inbound: data recibida {"hostname": "ry9", "address": "127.0.1.1", "datetime": "13/10/21 00:02:14", "type": "server_daemon", "surveys_ended": [], "tcp_port_inbound": 36147, "ttl": 3}
DEBUG:root:2021-10-13 00:02:14.461506  Multicast_inbound: recibido 159 bytes de ('192.168.4.108', 54607)
DEBUG:root:2021-10-13 00:02:14.462067  Multicast_inbound: enviando acknowledgement
DEBUG:root:2021-10-13 00:02:14.502903  Multicast_inbound: Esperando para recibir un mensaje
INFO:root:2021-10-13 00:02:14.537918  Received: {'minutes_left': 9}
DEBUG:root:2021-10-13 00:02:19.854789  Multicast_inbound: data recibida {"hostname": "ry9", "address": "127.0.1.1", "datetime": "13/10/21 00:02:19", "type": "server_daemon", "surveys_ended": [], "tcp_port_inbound": 36147, "ttl": 3}
DEBUG:root:2021-10-13 00:02:19.854904  Multicast_inbound: recibido 159 bytes de ('192.168.4.108', 54607)
DEBUG:root:2021-10-13 00:02:19.855234  Multicast_inbound: enviando acknowledgement
DEBUG:root:2021-10-13 00:02:19.874739  Multicast_inbound: Esperando para recibir un mensaje
INFO:root:2021-10-13 00:02:22.910779  Send: {"id": 4166219, "name:": "client_employee-1", "datetime": "13/10/21 00:02:22", "command": "how_much_time_left", "data": {"titulo": "Este es el titulo de la encuesta 1", "login": "elbrick"}, "initiator": {"hostname": "ry9", "address": "127.0.1.1", "type": "client_employee", "tcp_port_inbound": 55296}}
INFO:root:2021-10-13 00:02:23.074192  Received: {'minutes_left': 9}
DEBUG:root:2021-10-13 00:02:25.265546  Multicast_inbound: data recibida {"hostname": "ry9", "address": "127.0.1.1", "datetime": "13/10/21 00:02:25", "type": "server_daemon", "surveys_ended": [], "tcp_port_inbound": 36147, "ttl": 3}
DEBUG:root:2021-10-13 00:02:25.265741  Multicast_inbound: recibido 159 bytes de ('192.168.4.108', 54607)
DEBUG:root:2021-10-13 00:02:25.266375  Multicast_inbound: enviando acknowledgement
DEBUG:root:2021-10-13 00:02:25.308074  Multicast_inbound: Esperando para recibir un mensaje
INFO:root:2021-10-13 00:02:28.332134  Send: {"id": 5224107, "name:": "client_employee-1", "datetime": "13/10/21 00:02:28", "command": "how_much_time_left", "data": {"titulo": "Este es el titulo de la encuesta 1", "login": "elbrick"}, "initiator": {"hostname": "ry9", "address": "127.0.1.1", "type": "client_employee", "tcp_port_inbound": 55298}}
INFO:root:2021-10-13 00:02:28.452695  Received: {'minutes_left': 9}
DEBUG:root:2021-10-13 00:02:30.631989  Multicast_inbound: data recibida {"hostname": "ry9", "address": "127.0.1.1", "datetime": "13/10/21 00:02:30", "type": "server_daemon", "surveys_ended": [], "tcp_port_inbound": 36147, "ttl": 3}
DEBUG:root:2021-10-13 00:02:30.632103  Multicast_inbound: recibido 159 bytes de ('192.168.4.108', 54607)
DEBUG:root:2021-10-13 00:02:30.632429  Multicast_inbound: enviando acknowledgement
DEBUG:root:2021-10-13 00:02:30.651627  Multicast_inbound: Esperando para recibir un mensaje
DEBUG:root:2021-10-13 00:02:36.066109  Multicast_inbound: data recibida {"hostname": "ry9", "address": "127.0.1.1", "datetime": "13/10/21 00:02:35", "type": "server_daemon", "surveys_ended": [], "tcp_port_inbound": 36147, "ttl": 3}
DEBUG:root:2021-10-13 00:02:36.066295  Multicast_inbound: recibido 159 bytes de ('192.168.4.108', 54607)
DEBUG:root:2021-10-13 00:02:36.066863  Multicast_inbound: enviando acknowledgement
DEBUG:root:2021-10-13 00:02:36.108159  Multicast_inbound: Esperando para recibir un mensaje
DEBUG:root:2021-10-13 00:02:41.435490  Multicast_inbound: data recibida {"hostname": "ry9", "address": "127.0.1.1", "datetime": "13/10/21 00:02:41", "type": "server_daemon", "surveys_ended": [], "tcp_port_inbound": 36147, "ttl": 3}
DEBUG:root:2021-10-13 00:02:41.435611  Multicast_inbound: recibido 159 bytes de ('192.168.4.108', 54607)
DEBUG:root:2021-10-13 00:02:41.435931  Multicast_inbound: enviando acknowledgement
DEBUG:root:2021-10-13 00:02:41.454914  Multicast_inbound: Esperando para recibir un mensaje
DEBUG:root:2021-10-13 00:02:46.848771  Multicast_inbound: data recibida {"hostname": "ry9", "address": "127.0.1.1", "datetime": "13/10/21 00:02:46", "type": "server_daemon", "surveys_ended": [], "tcp_port_inbound": 36147, "ttl": 3}
DEBUG:root:2021-10-13 00:02:46.848959  Multicast_inbound: recibido 159 bytes de ('192.168.4.108', 54607)
DEBUG:root:2021-10-13 00:02:46.849590  Multicast_inbound: enviando acknowledgement
DEBUG:root:2021-10-13 00:02:46.889021  Multicast_inbound: Esperando para recibir un mensaje
DEBUG:root:2021-10-13 00:02:52.231092  Multicast_inbound: data recibida {"hostname": "ry9", "address": "127.0.1.1", "datetime": "13/10/21 00:02:52", "type": "server_daemon", "surveys_ended": [], "tcp_port_inbound": 36147, "ttl": 3}
DEBUG:root:2021-10-13 00:02:52.231201  Multicast_inbound: recibido 159 bytes de ('192.168.4.108', 54607)
DEBUG:root:2021-10-13 00:02:52.231525  Multicast_inbound: enviando acknowledgement
DEBUG:root:2021-10-13 00:02:52.250784  Multicast_inbound: Esperando para recibir un mensaje
DEBUG:root:2021-10-13 00:02:57.611995  Multicast_inbound: data recibida {"hostname": "ry9", "address": "127.0.1.1", "datetime": "13/10/21 00:02:57", "type": "server_daemon", "surveys_ended": [], "tcp_port_inbound": 36147, "ttl": 3}
DEBUG:root:2021-10-13 00:02:57.612121  Multicast_inbound: recibido 159 bytes de ('192.168.4.108', 54607)
DEBUG:root:2021-10-13 00:02:57.612482  Multicast_inbound: enviando acknowledgement
DEBUG:root:2021-10-13 00:02:57.632158  Multicast_inbound: Esperando para recibir un mensaje
DEBUG:root:2021-10-13 00:03:02.981299  Multicast_inbound: data recibida {"hostname": "ry9", "address": "127.0.1.1", "datetime": "13/10/21 00:03:02", "type": "server_daemon", "surveys_ended": [], "tcp_port_inbound": 36147, "ttl": 3}
DEBUG:root:2021-10-13 00:03:02.981480  Multicast_inbound: recibido 159 bytes de ('192.168.4.108', 54607)
DEBUG:root:2021-10-13 00:03:02.982022  Multicast_inbound: enviando acknowledgement
DEBUG:root:2021-10-13 00:03:03.022207  Multicast_inbound: Esperando para recibir un mensaje
DEBUG:root:2021-10-13 00:03:08.359208  Multicast_inbound: data recibida {"hostname": "ry9", "address": "127.0.1.1", "datetime": "13/10/21 00:03:08", "type": "server_daemon", "surveys_ended": [], "tcp_port_inbound": 36147, "ttl": 3}
DEBUG:root:2021-10-13 00:03:08.359325  Multicast_inbound: recibido 159 bytes de ('192.168.4.108', 54607)
DEBUG:root:2021-10-13 00:03:08.359771  Multicast_inbound: enviando acknowledgement
DEBUG:root:2021-10-13 00:03:08.379184  Multicast_inbound: Esperando para recibir un mensaje
DEBUG:root:2021-10-13 00:03:13.770195  Multicast_inbound: data recibida {"hostname": "ry9", "address": "127.0.1.1", "datetime": "13/10/21 00:03:13", "type": "server_daemon", "surveys_ended": [], "tcp_port_inbound": 36147, "ttl": 3}
DEBUG:root:2021-10-13 00:03:13.770398  Multicast_inbound: recibido 159 bytes de ('192.168.4.108', 54607)
DEBUG:root:2021-10-13 00:03:13.771312  Multicast_inbound: enviando acknowledgement
DEBUG:root:2021-10-13 00:03:13.809853  Multicast_inbound: Esperando para recibir un mensaje
DEBUG:root:2021-10-13 00:03:19.161352  Multicast_inbound: data recibida {"hostname": "ry9", "address": "127.0.1.1", "datetime": "13/10/21 00:03:19", "type": "server_daemon", "surveys_ended": [], "tcp_port_inbound": 36147, "ttl": 3}
DEBUG:root:2021-10-13 00:03:19.161484  Multicast_inbound: recibido 159 bytes de ('192.168.4.108', 54607)
DEBUG:root:2021-10-13 00:03:19.161834  Multicast_inbound: enviando acknowledgement
DEBUG:root:2021-10-13 00:03:19.181912  Multicast_inbound: Esperando para recibir un mensaje
DEBUG:root:2021-10-13 00:03:24.580307  Multicast_inbound: data recibida {"hostname": "ry9", "address": "127.0.1.1", "datetime": "13/10/21 00:03:24", "type": "server_daemon", "surveys_ended": [], "tcp_port_inbound": 36147, "ttl": 3}
DEBUG:root:2021-10-13 00:03:24.580497  Multicast_inbound: recibido 159 bytes de ('192.168.4.108', 54607)
DEBUG:root:2021-10-13 00:03:24.581066  Multicast_inbound: enviando acknowledgement
DEBUG:root:2021-10-13 00:03:24.621649  Multicast_inbound: Esperando para recibir un mensaje
DEBUG:root:2021-10-13 00:03:29.951627  Multicast_inbound: data recibida {"hostname": "ry9", "address": "127.0.1.1", "datetime": "13/10/21 00:03:29", "type": "server_daemon", "surveys_ended": [], "tcp_port_inbound": 36147, "ttl": 3}
DEBUG:root:2021-10-13 00:03:29.951754  Multicast_inbound: recibido 159 bytes de ('192.168.4.108', 54607)
DEBUG:root:2021-10-13 00:03:29.952110  Multicast_inbound: enviando acknowledgement
DEBUG:root:2021-10-13 00:03:29.972340  Multicast_inbound: Esperando para recibir un mensaje
DEBUG:root:2021-10-13 00:03:35.369975  Multicast_inbound: data recibida {"hostname": "ry9", "address": "127.0.1.1", "datetime": "13/10/21 00:03:35", "type": "server_daemon", "surveys_ended": [], "tcp_port_inbound": 36147, "ttl": 3}
DEBUG:root:2021-10-13 00:03:35.370174  Multicast_inbound: recibido 159 bytes de ('192.168.4.108', 54607)
DEBUG:root:2021-10-13 00:03:35.370896  Multicast_inbound: enviando acknowledgement
DEBUG:root:2021-10-13 00:03:35.410592  Multicast_inbound: Esperando para recibir un mensaje
DEBUG:root:2021-10-13 00:03:40.755449  Multicast_inbound: data recibida {"hostname": "ry9", "address": "127.0.1.1", "datetime": "13/10/21 00:03:40", "type": "server_daemon", "surveys_ended": [], "tcp_port_inbound": 36147, "ttl": 3}
DEBUG:root:2021-10-13 00:03:40.755571  Multicast_inbound: recibido 159 bytes de ('192.168.4.108', 54607)
DEBUG:root:2021-10-13 00:03:40.755895  Multicast_inbound: enviando acknowledgement
DEBUG:root:2021-10-13 00:03:40.775772  Multicast_inbound: Esperando para recibir un mensaje
DEBUG:root:2021-10-13 00:03:46.137915  Multicast_inbound: data recibida {"hostname": "ry9", "address": "127.0.1.1", "datetime": "13/10/21 00:03:46", "type": "server_daemon", "surveys_ended": [], "tcp_port_inbound": 36147, "ttl": 3}
DEBUG:root:2021-10-13 00:03:46.138036  Multicast_inbound: recibido 159 bytes de ('192.168.4.108', 54607)
DEBUG:root:2021-10-13 00:03:46.138375  Multicast_inbound: enviando acknowledgement
DEBUG:root:2021-10-13 00:03:46.157620  Multicast_inbound: Esperando para recibir un mensaje
DEBUG:root:2021-10-13 00:03:51.499319  Multicast_inbound: data recibida {"hostname": "ry9", "address": "127.0.1.1", "datetime": "13/10/21 00:03:51", "type": "server_daemon", "surveys_ended": [], "tcp_port_inbound": 36147, "ttl": 3}
DEBUG:root:2021-10-13 00:03:51.499503  Multicast_inbound: recibido 159 bytes de ('192.168.4.108', 54607)
DEBUG:root:2021-10-13 00:03:51.500099  Multicast_inbound: enviando acknowledgement
DEBUG:root:2021-10-13 00:03:51.541938  Multicast_inbound: Esperando para recibir un mensaje
DEBUG:root:2021-10-13 00:03:56.885419  Multicast_inbound: data recibida {"hostname": "ry9", "address": "127.0.1.1", "datetime": "13/10/21 00:03:56", "type": "server_daemon", "surveys_ended": [], "tcp_port_inbound": 36147, "ttl": 3}
DEBUG:root:2021-10-13 00:03:56.885548  Multicast_inbound: recibido 159 bytes de ('192.168.4.108', 54607)
DEBUG:root:2021-10-13 00:03:56.885893  Multicast_inbound: enviando acknowledgement
DEBUG:root:2021-10-13 00:03:56.905610  Multicast_inbound: Esperando para recibir un mensaje
DEBUG:root:2021-10-13 00:04:02.310013  Multicast_inbound: data recibida {"hostname": "ry9", "address": "127.0.1.1", "datetime": "13/10/21 00:04:02", "type": "server_daemon", "surveys_ended": [], "tcp_port_inbound": 36147, "ttl": 3}
DEBUG:root:2021-10-13 00:04:02.310200  Multicast_inbound: recibido 159 bytes de ('192.168.4.108', 54607)
DEBUG:root:2021-10-13 00:04:02.310771  Multicast_inbound: enviando acknowledgement
DEBUG:root:2021-10-13 00:04:02.352474  Multicast_inbound: Esperando para recibir un mensaje
DEBUG:root:2021-10-13 00:04:07.679405  Multicast_inbound: data recibida {"hostname": "ry9", "address": "127.0.1.1", "datetime": "13/10/21 00:04:07", "type": "server_daemon", "surveys_ended": [], "tcp_port_inbound": 36147, "ttl": 3}
DEBUG:root:2021-10-13 00:04:07.679529  Multicast_inbound: recibido 159 bytes de ('192.168.4.108', 54607)
DEBUG:root:2021-10-13 00:04:07.679851  Multicast_inbound: enviando acknowledgement
DEBUG:root:2021-10-13 00:04:07.699261  Multicast_inbound: Esperando para recibir un mensaje
DEBUG:root:2021-10-13 00:04:13.087968  Multicast_inbound: data recibida {"hostname": "ry9", "address": "127.0.1.1", "datetime": "13/10/21 00:04:12", "type": "server_daemon", "surveys_ended": [], "tcp_port_inbound": 36147, "ttl": 3}
DEBUG:root:2021-10-13 00:04:13.088160  Multicast_inbound: recibido 159 bytes de ('192.168.4.108', 54607)
DEBUG:root:2021-10-13 00:04:13.088742  Multicast_inbound: enviando acknowledgement
DEBUG:root:2021-10-13 00:04:13.129147  Multicast_inbound: Esperando para recibir un mensaje
DEBUG:root:2021-10-13 00:04:18.456015  Multicast_inbound: data recibida {"hostname": "ry9", "address": "127.0.1.1", "datetime": "13/10/21 00:04:18", "type": "server_daemon", "surveys_ended": [], "tcp_port_inbound": 36147, "ttl": 3}
DEBUG:root:2021-10-13 00:04:18.456134  Multicast_inbound: recibido 159 bytes de ('192.168.4.108', 54607)
DEBUG:root:2021-10-13 00:04:18.456470  Multicast_inbound: enviando acknowledgement
DEBUG:root:2021-10-13 00:04:18.475645  Multicast_inbound: Esperando para recibir un mensaje
DEBUG:root:2021-10-13 00:04:23.866311  Multicast_inbound: data recibida {"hostname": "ry9", "address": "127.0.1.1", "datetime": "13/10/21 00:04:23", "type": "server_daemon", "surveys_ended": [], "tcp_port_inbound": 36147, "ttl": 3}
DEBUG:root:2021-10-13 00:04:23.866488  Multicast_inbound: recibido 159 bytes de ('192.168.4.108', 54607)
DEBUG:root:2021-10-13 00:04:23.867024  Multicast_inbound: enviando acknowledgement
DEBUG:root:2021-10-13 00:04:23.896165  Multicast_inbound: Esperando para recibir un mensaje
DEBUG:root:2021-10-13 00:04:29.256731  Multicast_inbound: data recibida {"hostname": "ry9", "address": "127.0.1.1", "datetime": "13/10/21 00:04:29", "type": "server_daemon", "surveys_ended": [], "tcp_port_inbound": 36147, "ttl": 3}
DEBUG:root:2021-10-13 00:04:29.256932  Multicast_inbound: recibido 159 bytes de ('192.168.4.108', 54607)
DEBUG:root:2021-10-13 00:04:29.257576  Multicast_inbound: enviando acknowledgement
DEBUG:root:2021-10-13 00:04:29.297726  Multicast_inbound: Esperando para recibir un mensaje
DEBUG:root:2021-10-13 00:04:34.648630  Multicast_inbound: data recibida {"hostname": "ry9", "address": "127.0.1.1", "datetime": "13/10/21 00:04:34", "type": "server_daemon", "surveys_ended": [], "tcp_port_inbound": 36147, "ttl": 3}
DEBUG:root:2021-10-13 00:04:34.648750  Multicast_inbound: recibido 159 bytes de ('192.168.4.108', 54607)
DEBUG:root:2021-10-13 00:04:34.649076  Multicast_inbound: enviando acknowledgement
DEBUG:root:2021-10-13 00:04:34.669527  Multicast_inbound: Esperando para recibir un mensaje
DEBUG:root:2021-10-13 00:04:40.041630  Multicast_inbound: data recibida {"hostname": "ry9", "address": "127.0.1.1", "datetime": "13/10/21 00:04:39", "type": "server_daemon", "surveys_ended": [], "tcp_port_inbound": 36147, "ttl": 3}
DEBUG:root:2021-10-13 00:04:40.041816  Multicast_inbound: recibido 159 bytes de ('192.168.4.108', 54607)
DEBUG:root:2021-10-13 00:04:40.042379  Multicast_inbound: enviando acknowledgement
DEBUG:root:2021-10-13 00:04:40.080434  Multicast_inbound: Esperando para recibir un mensaje
DEBUG:root:2021-10-13 00:04:45.431740  Multicast_inbound: data recibida {"hostname": "ry9", "address": "127.0.1.1", "datetime": "13/10/21 00:04:45", "type": "server_daemon", "surveys_ended": [], "tcp_port_inbound": 36147, "ttl": 3}
DEBUG:root:2021-10-13 00:04:45.431861  Multicast_inbound: recibido 159 bytes de ('192.168.4.108', 54607)
DEBUG:root:2021-10-13 00:04:45.432369  Multicast_inbound: enviando acknowledgement
DEBUG:root:2021-10-13 00:04:45.452265  Multicast_inbound: Esperando para recibir un mensaje
DEBUG:root:2021-10-13 00:04:50.822013  Multicast_inbound: data recibida {"hostname": "ry9", "address": "127.0.1.1", "datetime": "13/10/21 00:04:50", "type": "server_daemon", "surveys_ended": [], "tcp_port_inbound": 36147, "ttl": 3}
DEBUG:root:2021-10-13 00:04:50.822240  Multicast_inbound: recibido 159 bytes de ('192.168.4.108', 54607)
DEBUG:root:2021-10-13 00:04:50.823201  Multicast_inbound: enviando acknowledgement
DEBUG:root:2021-10-13 00:04:50.863797  Multicast_inbound: Esperando para recibir un mensaje
DEBUG:root:2021-10-13 00:04:56.215264  Multicast_inbound: data recibida {"hostname": "ry9", "address": "127.0.1.1", "datetime": "13/10/21 00:04:56", "type": "server_daemon", "surveys_ended": [], "tcp_port_inbound": 36147, "ttl": 3}
DEBUG:root:2021-10-13 00:04:56.215384  Multicast_inbound: recibido 159 bytes de ('192.168.4.108', 54607)
DEBUG:root:2021-10-13 00:04:56.215695  Multicast_inbound: enviando acknowledgement
DEBUG:root:2021-10-13 00:04:56.235011  Multicast_inbound: Esperando para recibir un mensaje
DEBUG:root:2021-10-13 00:05:01.601656  Multicast_inbound: data recibida {"hostname": "ry9", "address": "127.0.1.1", "datetime": "13/10/21 00:05:01", "type": "server_daemon", "surveys_ended": [{"titulo": "Este es el titulo de la encuesta 1", "descripcion": "Encuesta de ejemplo", "inicio_pre_incripcion": "13/10/21 00:00:00", "duracion_pre_incripcion": 2, "inicio_llenado": "13/10/21 00:02:00", "duracion_llenado": 3, "tiempo_visualizacion_respuesta_de_pregunta": 2, "tiempo_para_responder_la_encuesta": 10, "preguntas": ["Cuanto tiempo tiene en la empresa?", "Le gusta la empresa?", "Se siente a gusto con su jefe?", "Quiere trabajar remoto (Si/No)?"], "empleados": [{"login": "elbrick", "key": 935, "datetime": "13/10/21 00:02:07"}], "status": ["Encuesta finalizo, el periodo de llenado era del 13/10/21 00:02:00 al 13/10/21 00:05:00"]}], "tcp_port_inbound": 36147, "ttl": 3}
DEBUG:root:2021-10-13 00:05:01.601777  Multicast_inbound: recibido 804 bytes de ('192.168.4.108', 54607)
DEBUG:root:2021-10-13 00:05:01.602195  Multicast_inbound: enviando acknowledgement
DEBUG:root:2021-10-13 00:05:01.621700  Multicast_inbound: Esperando para recibir un mensaje
